React***มองทุอย่างเป็น component (java-object)
***หนึ่งcomponent returnได้แค่ตัวเดียว
***ใช้divเพื่อที่จะใช้หลายcomponent
**ต้องตั้งชื่อconmponentเป็นตัวใหญ่
--------------------------------------------------------
process install react

yarn window install
npx create-react-app app-name
cd app-name
yarn start or npm start *เพื่อใช้งานreact
***file working- src
***file run work-public
---------------------------------------------------------
function in react มี3แบบ
function component
class compnent
arrow function